{
	"$schema" : "https://aka.ms/winget-packages.schema.2.0.json",
	"Sources" :
	[
		{
			"Packages" : 
			[
				{
					"PackageIdentifier" : "Alacritty.Alacritty"
				},
				{
					"PackageIdentifier" : "Armin2208.WindowsAutoNightMode"
				},
				{
					"PackageIdentifier" : "Brave.Brave"
				},
				{
					"PackageIdentifier" : "Mozilla.Firefox"
				},
				{
					"PackageIdentifier" : "tailscale.tailscale"
				}
			],
			"SourceDetails" : 
			{
				"Argument" : "https://winget.azureedge.net/cache",
				"Identifier" : "Microsoft.Winget.Source_8wekyb3d8bbwe",
				"Name" : "winget",
				"Type" : "Microsoft.PreIndexed.Package"
			}
		}
	]
}
